[gd_scene load_steps=4 format=3 uid="uid://dkbbp16w2ttiq"]

[ext_resource type="Script" path="res://entities/basic_projectile/basic_projectile.gd" id="1_psydo"]
[ext_resource type="PackedScene" uid="uid://c607lfgq5p6d3" path="res://Tsuneda/Projectiles/MainProjectile/main_projectile.tscn" id="2_w7bec"]

[sub_resource type="SphereShape3D" id="SphereShape3D_g2688"]
radius = 1.5

[node name="BasicProjectile" type="Node3D"]
script = ExtResource("1_psydo")
speed = 10

[node name="Area3D" type="Area3D" parent="."]
collision_layer = 3

[node name="CollisionShape3D" type="CollisionShape3D" parent="Area3D"]
shape = SubResource("SphereShape3D_g2688")

[node name="ArcaneOrb" parent="." instance=ExtResource("2_w7bec")]

[connection signal="body_entered" from="Area3D" to="." method="_on_area_3d_body_entered"]
