[gd_scene load_steps=9 format=3 uid="uid://xvtxrn4ltv22"]

[ext_resource type="Material" uid="uid://xuklvnmnhoae" path="res://Tsuneda/Projectiles/MortarProjectile/mortar_projectile_explosion_yellow.tres" id="1_qfja7"]
[ext_resource type="Texture2D" uid="uid://d27onke7trgwb" path="res://Tsuneda/Textures/kenney_particle-pack/PNG (Transparent)/light_01.png" id="2_31isq"]
[ext_resource type="Material" uid="uid://dybqs6n3bq468" path="res://Tsuneda/Projectiles/MortarProjectile/mortar_projectile_explosion_red.tres" id="2_amg3n"]
[ext_resource type="Texture2D" uid="uid://ycyoo5wkth3n" path="res://Tsuneda/Textures/kenney_particle-pack/PNG (Transparent)/dirt_03.png" id="2_bxf0g"]

[sub_resource type="StandardMaterial3D" id="StandardMaterial3D_7u5de"]
transparency = 1
blend_mode = 1
shading_mode = 0
vertex_color_use_as_albedo = true
albedo_texture = ExtResource("2_31isq")
billboard_mode = 3
particles_anim_h_frames = 1
particles_anim_v_frames = 1
particles_anim_loop = false

[sub_resource type="QuadMesh" id="QuadMesh_5dkma"]
material = SubResource("StandardMaterial3D_7u5de")

[sub_resource type="StandardMaterial3D" id="StandardMaterial3D_ssw2m"]
transparency = 1
blend_mode = 1
shading_mode = 0
vertex_color_use_as_albedo = true
albedo_texture = ExtResource("2_bxf0g")
billboard_mode = 3
particles_anim_h_frames = 1
particles_anim_v_frames = 1
particles_anim_loop = false

[sub_resource type="QuadMesh" id="QuadMesh_b7xio"]
material = SubResource("StandardMaterial3D_ssw2m")

[node name="MortarProjectileExplosion" type="Node3D"]

[node name="Particle2" type="GPUParticles3D" parent="."]
amount = 100
lifetime = 0.5
explosiveness = 1.0
local_coords = true
process_material = ExtResource("1_qfja7")
draw_pass_1 = SubResource("QuadMesh_5dkma")

[node name="Particle3" type="GPUParticles3D" parent="."]
amount = 100
lifetime = 0.5
explosiveness = 1.0
local_coords = true
process_material = ExtResource("2_amg3n")
draw_pass_1 = SubResource("QuadMesh_b7xio")
