[gd_scene load_steps=5 format=3 uid="uid://bo3qwf7m3ip6d"]

[ext_resource type="PackedScene" uid="uid://dkbbp16w2ttiq" path="res://entities/basic_projectile/basic_projectile.tscn" id="1_u0vew"]
[ext_resource type="Script" path="res://entities/pushback_projectile/pushback_projectile.gd" id="2_1jt3o"]
[ext_resource type="PackedScene" uid="uid://ddex5ribrhbaq" path="res://Tsuneda/wind_shield.tscn" id="3_82si5"]

[sub_resource type="BoxShape3D" id="BoxShape3D_3xley"]
size = Vector3(6, 1, 6)

[node name="PushbackProjectile" instance=ExtResource("1_u0vew")]
script = ExtResource("2_1jt3o")

[node name="Area3D" parent="." index="0"]
collision_layer = 1

[node name="CollisionShape3D" parent="Area3D" index="0"]
shape = SubResource("BoxShape3D_3xley")

[node name="ArcaneOrb" parent="." index="1"]
visible = false

[node name="LifeTimer" type="Timer" parent="." index="2"]
wait_time = 0.5
one_shot = true
autostart = true

[node name="WindShield" parent="." index="3" instance=ExtResource("3_82si5")]

[connection signal="timeout" from="LifeTimer" to="." method="queue_free"]
