[gd_scene load_steps=4 format=3 uid="uid://ddex5ribrhbaq"]

[ext_resource type="Shader" path="res://Tsuneda/wind_shield.gdshader" id="1_wjnvj"]

[sub_resource type="SphereMesh" id="SphereMesh_30xp2"]
radius = 3.0
height = 3.0
is_hemisphere = true

[sub_resource type="ShaderMaterial" id="ShaderMaterial_igq5i"]
render_priority = 0
shader = ExtResource("1_wjnvj")
shader_parameter/speed = Vector2(0.2, 0.2)
shader_parameter/barrier_color = Color(0, 0.854902, 0.611765, 1)
shader_parameter/barrier_force = 1.285
shader_parameter/barrier_noise_force = -0.34
shader_parameter/barrier_fog_noise_force = 0.3

[node name="WindShield" type="Node3D"]

[node name="MeshInstance3D" type="MeshInstance3D" parent="."]
mesh = SubResource("SphereMesh_30xp2")
surface_material_override/0 = SubResource("ShaderMaterial_igq5i")
